\relax 
\@writefile{toc}{\contentsline {section}{\numberline {1}Setup}{1}}
\@writefile{toc}{\contentsline {section}{\numberline {2}Init syntax}{1}}
\@writefile{toc}{\contentsline {section}{\numberline {3}Comments}{1}}
\@writefile{toc}{\contentsline {section}{\numberline {4}Printing simple string}{1}}
\@writefile{toc}{\contentsline {section}{\numberline {5}Data types and variables}{2}}
